{
  "project_info": {
    "project_id": "carhealth-6cd48",
    "project_number": "561520225764",
    "name": "CarHealth"
  },
  "client": [
    {
      "client_info": {
        "mobilesdk_app_id": "1:561520225764:android:ec708505ea4ddbcb",
        "client_id": "android:allison.kevin.cse691.carhealth",
        "client_type": 1,
        "android_client_info": {
          "package_name": "allison.kevin.cse691.carhealth",
          "certificate_hash": []
        }
      },
      "oauth_client": [],
      "api_key": [],
      "services": {
        "analytics_service": {
          "status": 1
        },
        "cloud_messaging_service": {
          "status": 1,
          "apns_config": []
        },
        "appinvite_service": {
          "status": 1,
          "other_platform_oauth_client": []
        },
        "google_signin_service": {
          "status": 1
        },
        "ads_service": {
          "status": 1
        }
      }
    }
  ],
  "client_info": [],
  "ARTIFACT_VERSION": "1"
}